Purrr07 - List Columns
…
Get character IDs from repurrrsive. cheating a little, humor me

Put IDs and character names in a tibble.

pov <- set_names(map_int(got_chars, "id"),
                 map_chr(got_chars, "name"))
tail(pov, 5)
#>      Melisandre    Merrett Frey Quentyn Martell   Samwell Tarly 
#>             743             751             844             954 
#>     Sansa Stark 
#>             957
ice <- pov %>%
  enframe(value = "id")
ice
#> # A tibble: 30 x 2
#>    name                  id
#>    <chr>              <int>
#>  1 Theon Greyjoy       1022
#>  2 Tyrion Lannister    1052
#>  3 Victarion Greyjoy   1074
#>  4 Will                1109
#>  5 Areo Hotah          1166
#>  6 Chett               1267
#>  7 Cressen             1295
#>  8 Arianne Martell      130
#>  9 Daenerys Targaryen  1303
#> 10 Davos Seaworth      1319
#> # ... with 20 more rows
…
} else {
  ice <- ice %>%
    mutate(
      response = map(id,
                     ~ GET(ice_and_fire_url,
                           path = c("api", "characters", .x))),
      stuff = map(response, ~ content(.x, as = "parsed",
                                      simplifyVector = TRUE))
    ) %>%
    select(-id, -response)
  saveRDS(ice, here("static","note","data", "ice.rds"))
}
#> Error in here("static", "note", "data", "ice.rds"): unused arguments ("static", "note", "data", "ice.rds")
ice
#> # A tibble: 30 x 2
#>    name                  id
#>    <chr>              <int>
#>  1 Theon Greyjoy       1022
#>  2 Tyrion Lannister    1052
#>  3 Victarion Greyjoy   1074
#>  4 Will                1109
#>  5 Areo Hotah          1166
#>  6 Chett               1267
#>  7 Cressen             1295
#>  8 Arianne Martell      130
#>  9 Daenerys Targaryen  1303
#> 10 Davos Seaworth      1319
#> # ... with 20 more rows

Lets switch to a nicer version of ice, based on the list in repurrrsive, because it already has books and houses replaced with names instead of URLs.

ice2 <- tibble(
  name = map_chr(got_chars, "name"),
  stuff = got_chars
)
ice2
#> # A tibble: 30 x 2
#>    name               stuff      
#>    <chr>              <list>     
#>  1 Theon Greyjoy      <list [18]>
#>  2 Tyrion Lannister   <list [18]>
#>  3 Victarion Greyjoy  <list [18]>
#>  4 Will               <list [18]>
#>  5 Areo Hotah         <list [18]>
#>  6 Chett              <list [18]>
#>  7 Cressen            <list [18]>
#>  8 Arianne Martell    <list [18]>
#>  9 Daenerys Targaryen <list [18]>
#> 10 Davos Seaworth     <list [18]>
#> # ... with 20 more rows
…
Use regular data manipulation toolkit

Form a sentence of the form NAME was born AT THIS TIME, IN THIS PLACE by digging info out of the stuff list-column and placing into a string template. No list-columns left!

template <- "${name} was born ${born}."
birth_announcements <- ice2 %>%
  mutate(birth = map_chr(stuff, str_interp, string = template)) %>%
  select(-stuff)
birth_announcements
#> # A tibble: 30 x 2
#>    name               birth                                               
#>    <chr>              <chr>                                               
#>  1 Theon Greyjoy      Theon Greyjoy was born In 278 AC or 279 AC, at Pyke.
#>  2 Tyrion Lannister   Tyrion Lannister was born In 273 AC, at Casterly Ro
#>  3 Victarion Greyjoy  Victarion Greyjoy was born In 268 AC or before, at 
#>  4 Will               Will was born .                                     
#>  5 Areo Hotah         Areo Hotah was born In 257 AC or before, at Norvos. 
#>  6 Chett              Chett was born At Hag's Mire.                       
#>  7 Cressen            Cressen was born In 219 AC or 220 AC.               
#>  8 Arianne Martell    Arianne Martell was born In 276 AC, at Sunspear.    
#>  9 Daenerys Targaryen Daenerys Targaryen was born In 284 AC, at Dragonsto
#> 10 Davos Seaworth     Davos Seaworth was born In 260 AC or before, at Kin
#> # ... with 20 more rows
…
library(tidyverse)
library(repurrrsive)
library(stringr)

Lists as variables in a data frame

One row per GoT character. List columns for aliases and allegiances.

x <- tibble(
  name = got_chars %>% map_chr("name"),
  aliases = got_chars %>% map("aliases"),
  allegiances = got_chars %>% map("allegiances")
)
x
#> # A tibble: 30 x 3
#>    name               aliases    allegiances
#>    <chr>              <list>     <list>     
#>  1 Theon Greyjoy      <chr [4]>  <chr [1]>  
#>  2 Tyrion Lannister   <chr [11]> <chr [1]>  
#>  3 Victarion Greyjoy  <chr [1]>  <chr [1]>  
#>  4 Will               <chr [1]>  <NULL>     
#>  5 Areo Hotah         <chr [1]>  <chr [1]>  
#>  6 Chett              <chr [1]>  <NULL>     
#>  7 Cressen            <chr [1]>  <NULL>     
#>  8 Arianne Martell    <chr [1]>  <chr [1]>  
#>  9 Daenerys Targaryen <chr [11]> <chr [1]>  
#> 10 Davos Seaworth     <chr [5]>  <chr [2]>  
#> # ... with 20 more rows
#View(x)

What if we only care about characters with a Lannister alliance? Practice operating on a list-column.

x %>%
  mutate(lannister = map(allegiances, str_detect, pattern = "Lannister"),
         lannister = map_lgl(lannister, any))
#> # A tibble: 30 x 4
#>    name               aliases    allegiances lannister
#>    <chr>              <list>     <list>      <lgl>    
#>  1 Theon Greyjoy      <chr [4]>  <chr [1]>   FALSE    
#>  2 Tyrion Lannister   <chr [11]> <chr [1]>   TRUE     
#>  3 Victarion Greyjoy  <chr [1]>  <chr [1]>   FALSE    
#>  4 Will               <chr [1]>  <NULL>      FALSE    
#>  5 Areo Hotah         <chr [1]>  <chr [1]>   FALSE    
#>  6 Chett              <chr [1]>  <NULL>      FALSE    
#>  7 Cressen            <chr [1]>  <NULL>      FALSE    
#>  8 Arianne Martell    <chr [1]>  <chr [1]>   FALSE    
#>  9 Daenerys Targaryen <chr [11]> <chr [1]>   FALSE    
#> 10 Davos Seaworth     <chr [5]>  <chr [2]>   FALSE    
#> # ... with 20 more rows
…
What if you actually want those fits? To access estimates, p-values, etc. In that case, you need to fit them yourself. How to do that?

Put the variables needed for country-specific models into nested dataframe. In a list-column!

Use the usual map inside mutate, possibly with the broom package, to pull interesting information out of the 142 fitted linear models.

Nested data frame

Nest the data frames, i.e.get one meta-row per country:

gap_nested <- gapminder %>%
  group_by(country) %>%
  nest()
gap_nested
#> # A tibble: 142 x 2
#>    country     data             
#>    <fct>       <list>           
#>  1 Afghanistan <tibble [12  5]>
#>  2 Albania     <tibble [12  5]>
#>  3 Algeria     <tibble [12  5]>
#>  4 Angola      <tibble [12  5]>
#>  5 Argentina   <tibble [12  5]>
#>  6 Australia   <tibble [12  5]>
#>  7 Austria     <tibble [12  5]>
#>  8 Bahrain     <tibble [12  5]>
#>  9 Bangladesh  <tibble [12  5]>
#> 10 Belgium     <tibble [12  5]>
#> # ... with 132 more rows
…
Lets get all the r-squared values!

gap_fits %>%
  mutate(rsq = map_dbl(fit, ~ summary(.x)[["r.squared"]])) %>%
  arrange(rsq)
#> # A tibble: 142 x 4
#>    country          data              fit         rsq
#>    <fct>            <list>            <list>    <dbl>
#>  1 Rwanda           <tibble [12  5]> <S3: lm> 0.0172
#>  2 Botswana         <tibble [12  5]> <S3: lm> 0.0340
#>  3 Zimbabwe         <tibble [12  5]> <S3: lm> 0.0562
#>  4 Zambia           <tibble [12  5]> <S3: lm> 0.0598
#>  5 Swaziland        <tibble [12  5]> <S3: lm> 0.0682
#>  6 Lesotho          <tibble [12  5]> <S3: lm> 0.0849
#>  7 Cote d'Ivoire    <tibble [12  5]> <S3: lm> 0.283 
#>  8 South Africa     <tibble [12  5]> <S3: lm> 0.312 
#>  9 Uganda           <tibble [12  5]> <S3: lm> 0.342 
#> 10 Congo, Dem. Rep. <tibble [12  5]> <S3: lm> 0.348 
#> # ... with 132 more rows

Lets use a function from broom to get the usual coefficient table from summary.lm() but in a friendlier form for downstream work.

library(broom)
gap_fits %>%
  mutate(coef = map(fit, tidy)) %>%
  unnest(coef)
#> # A tibble: 284 x 6
#>    country     term         estimate std.error statistic  p.value
#>    <fct>       <chr>           <dbl>     <dbl>     <dbl>    <dbl>
#>  1 Afghanistan (Intercept)  -508.     40.5        -12.5  1.93e- 7
#>  2 Afghanistan year            0.275   0.0205      13.5  9.84e- 8
#>  3 Albania     (Intercept)  -594.     65.7         -9.05 3.94e- 6
#>  4 Albania     year            0.335   0.0332      10.1  1.46e- 6
#>  5 Algeria     (Intercept) -1068.     43.8        -24.4  3.07e-10
#>  6 Algeria     year            0.569   0.0221      25.7  1.81e-10
#>  7 Angola      (Intercept)  -377.     46.6         -8.08 1.08e- 5
#>  8 Angola      year            0.209   0.0235       8.90 4.59e- 6
#>  9 Argentina   (Intercept)  -390.      9.68       -40.3  2.14e-12
#> 10 Argentina   year            0.232   0.00489     47.4  4.22e-13
#> # ... with 274 more rows
…
